<?xml version="1.0" encoding="utf-8"?>
<!-- Generator: Adobe Illustrator 17.0.0, SVG Export Plug-In . SVG Version: 6.00 Build 0)  -->
<!DOCTYPE svg PUBLIC "-//W3C//DTD SVG 1.1//EN" "http://www.w3.org/Graphics/SVG/1.1/DTD/svg11.dtd">
<svg version="1.1" id="Layer_1" xmlns="http://www.w3.org/2000/svg" x="0px" y="0px"
     width="100px" height="100px" viewBox="0 0 100 100" enable-background="new 0 0 100 100" xml:space="preserve">
<g>
	<circle cx="31.102" cy="23.979" r="6.978"/>
	<circle cx="68.898" cy="23.979" r="6.978"/>
	<circle cx="31.102" cy="50" r="6.978"/>
	<circle cx="68.898" cy="50" r="6.978"/>
	<circle cx="31.102" cy="76.02" r="6.978"/>
	<circle cx="68.898" cy="76.02" r="6.978"/>
</g>
</svg>
