<?xml version="1.0" encoding="utf-8"?>
<!-- Generator: Adobe Illustrator 17.0.0, SVG Export Plug-In . SVG Version: 6.00 Build 0)  -->
<!DOCTYPE svg PUBLIC "-//W3C//DTD SVG 1.1//EN" "http://www.w3.org/Graphics/SVG/1.1/DTD/svg11.dtd">
<svg version="1.1" id="Layer_1" xmlns="http://www.w3.org/2000/svg" x="0px" y="0px"
     width="100px" height="100px" viewBox="0 0 100 100" enable-background="new 0 0 100 100" xml:space="preserve">
<g>
	<path d="M80.182,67.457L80.182,67.457l-35.4-0.001v0.001c-0.003,0-0.006-0.001-0.009-0.001c-1.253,0-2.269,1.017-2.269,2.269
		c0,0.042,0.01,0.08,0.012,0.121V80.18h0.011c0,1.248,1.008,2.26,2.254,2.268v0.001h35.4v-0.002c1.246-0.008,2.254-1.02,2.254-2.268
		l0-10.354c0.002-0.034,0.01-0.067,0.01-0.101C82.446,68.474,81.433,67.46,80.182,67.457z"/>
	<path d="M30.278,67.454L30.278,67.454H19.823l0,0h-0.001c-1.253,0-2.269,1.017-2.269,2.269l0,0h0v10.454h0
		c0,1.253,1.016,2.269,2.268,2.269h0.001l0,0h10.454l0,0c1.253,0,2.269-1.016,2.269-2.269h0V69.723h0l0,0
		C32.547,68.471,31.531,67.454,30.278,67.454z"/>
	<path d="M80.182,42.467L80.182,42.467l-35.4-0.001v0.001c-0.003,0-0.006-0.001-0.009-0.001c-1.253,0-2.269,1.017-2.269,2.269
		c0,0.042,0.01,0.08,0.012,0.121V55.19h0.011c0,1.248,1.008,2.26,2.254,2.268v0.001h35.4v-0.002c1.246-0.008,2.254-1.02,2.254-2.268
		l0-10.354c0.002-0.034,0.01-0.067,0.01-0.101C82.446,43.484,81.433,42.47,80.182,42.467z"/>
	<path d="M30.278,42.464L30.278,42.464H19.823v0l-0.001,0c-1.253,0-2.269,1.017-2.269,2.269l0,0h0v10.454h0
		c0,1.253,1.016,2.269,2.268,2.269l0.001,0v0h10.454l0,0c1.253,0,2.269-1.016,2.269-2.269h0V44.733h0l0,0
		C32.547,43.481,31.531,42.464,30.278,42.464z"/>
	<path d="M42.516,30.276h0.011c0,1.248,1.008,2.26,2.254,2.268v0.001h35.4v-0.002c1.246-0.008,2.254-1.02,2.254-2.268l0-10.354
		c0.002-0.034,0.01-0.067,0.01-0.101c0-1.251-1.013-2.265-2.264-2.268v-0.001h-35.4v0.001c-0.003,0-0.006-0.001-0.009-0.001
		c-1.253,0-2.269,1.017-2.269,2.269c0,0.042,0.01,0.08,0.012,0.121V30.276z"/>
	<path d="M30.278,17.551L30.278,17.551H19.823v0l-0.001,0c-1.253,0-2.269,1.017-2.269,2.269l0,0h0v10.454h0
		c0,1.253,1.016,2.269,2.268,2.269l0.001,0v0h10.454l0,0c1.253,0,2.269-1.016,2.269-2.269h0V19.82h0l0,0
		C32.547,18.567,31.531,17.551,30.278,17.551z"/>
</g>
</svg>
