<?xml version="1.0" encoding="utf-8"?>
<!-- Generator: Adobe Illustrator 17.0.0, SVG Export Plug-In . SVG Version: 6.00 Build 0)  -->
<!DOCTYPE svg PUBLIC "-//W3C//DTD SVG 1.1//EN" "http://www.w3.org/Graphics/SVG/1.1/DTD/svg11.dtd">
<svg version="1.1" id="Layer_1" xmlns="http://www.w3.org/2000/svg" x="0px" y="0px"
     width="100px" height="100px" viewBox="0 0 100 100" enable-background="new 0 0 100 100" xml:space="preserve">
<g>
	<path d="M88.158,16.509L88.158,16.509c0-0.986-0.798-1.785-1.785-1.786H13.628c0,0,0,0,0,0c-0.987,0-1.786,0.799-1.786,1.785
		l0,0.001v6.385l0,0c0,0.986,0.799,1.785,1.786,1.785c0,0,0,0,0.001,0h72.745c0.987,0,1.785-0.799,1.785-1.785h0L88.158,16.509
		L88.158,16.509z"/>
	<path d="M82.026,29.659H17.974c-0.986,0.001-1.785,0.8-1.785,1.786c0,0.003,0.001,0.006,0.001,0.006l-0.001,0.003v37.154
		c0,2.201,1.857,3.982,4.152,3.982h27.17v5.373c-0.966,0.748-1.599,1.906-1.599,3.222c0,2.259,1.831,4.09,4.089,4.09
		s4.089-1.831,4.089-4.09c0-1.317-0.634-2.476-1.601-3.223v-5.372h27.17c2.294,0,4.152-1.781,4.152-3.982V31.412h-0.003
		C83.789,30.442,83,29.66,82.026,29.659z"/>
</g>
</svg>
