<?xml version="1.0" encoding="utf-8"?>
<!-- Generator: Adobe Illustrator 17.0.0, SVG Export Plug-In . SVG Version: 6.00 Build 0)  -->
<!DOCTYPE svg PUBLIC "-//W3C//DTD SVG 1.1//EN" "http://www.w3.org/Graphics/SVG/1.1/DTD/svg11.dtd">
<svg version="1.1" id="Layer_1" xmlns="http://www.w3.org/2000/svg" x="0px" y="0px"
     width="100px" height="100px" viewBox="0 0 100 100" enable-background="new 0 0 100 100" xml:space="preserve">
<g>
	<g>
		<path d="M73.603,78.553h-6.49h0c-0.956,0-1.73,0.774-1.73,1.73h-0.007v3.01H24.735V36.16h17.723c0.956,0,1.73-0.774,1.73-1.73
			V16.707h21.188l0,20.627h0.008c0.003,0.954,0.776,1.726,1.73,1.726h6.49c0.954,0,1.727-0.772,1.729-1.726h0V37.33l0-0.001
			c0,0,0-0.001,0-0.001l0-24.828h-0.005V8.48c0-0.956-0.774-1.73-1.73-1.73h-2.45v0H42.457v0h-1.73L14.778,32.7v2.447v1.013v52.912
			v2.447c0,0.956,0.774,1.73,1.73,1.73h1.582h53.925h1.582c0.956,0,1.73-0.774,1.73-1.73v-2.448h0.005l0-8.789l0-0.001
			C75.333,79.328,74.559,78.553,73.603,78.553z"/>
	</g>
	<g>
		<path d="M79.21,58.751l5.505-5.505c0.676-0.676,0.676-1.771,0-2.447l-4.894-4.893c-0.676-0.676-1.771-0.676-2.446,0l-5.505,5.505
			l-5.505-5.505c-0.676-0.676-1.77-0.676-2.446,0L59.026,50.8c-0.676,0.676-0.676,1.771,0,2.447l5.505,5.505l-5.505,5.505
			c-0.676,0.676-0.676,1.771,0,2.446l4.894,4.893c0.676,0.676,1.77,0.676,2.446,0l5.505-5.505l5.505,5.505
			c0.676,0.676,1.77,0.676,2.446,0l4.894-4.893c0.676-0.676,0.676-1.771,0-2.446L79.21,58.751z"/>
	</g>
</g>
</svg>
