<?xml version="1.0" encoding="utf-8"?>
<!-- Generator: Adobe Illustrator 17.0.0, SVG Export Plug-In . SVG Version: 6.00 Build 0)  -->
<!DOCTYPE svg PUBLIC "-//W3C//DTD SVG 1.1//EN" "http://www.w3.org/Graphics/SVG/1.1/DTD/svg11.dtd">
<svg version="1.1" id="Layer_1" xmlns="http://www.w3.org/2000/svg" x="0px" y="0px"
     width="100px" height="100px" viewBox="0 0 100 100" enable-background="new 0 0 100 100" xml:space="preserve">
<g>
	<path d="M94.284,65.553L75.825,52.411c-0.389-0.276-0.887-0.312-1.312-0.093c-0.424,0.218-0.684,0.694-0.685,1.173l0.009,6.221
		H57.231c-0.706,0-1.391,0.497-1.391,1.204v11.442c0,0.707,0.685,1.194,1.391,1.194h16.774v6.27c0,0.478,0.184,0.917,0.609,1.136
		s0.853,0.182,1.242-0.097l18.432-13.228c0.335-0.239,0.477-0.626,0.477-1.038c0-0.002,0-0.002,0-0.002
		C94.765,66.179,94.621,65.793,94.284,65.553z"/>
	<path d="M64.06,78.553h-6.49h0c-0.956,0-1.73,0.774-1.73,1.73h-0.007v3.01H15.191V36.16h17.723c0.956,0,1.73-0.774,1.73-1.73
		V16.707h21.188l0,36.356h0.011c0.021,0.937,0.784,1.691,1.726,1.691h6.49c0.943,0,1.705-0.754,1.726-1.691h0.004v-0.038
		c0,0,0-0.001,0-0.001c0-0.001,0-0.001,0-0.002l0-40.522h-0.005V8.48c0-0.956-0.774-1.73-1.73-1.73h-2.45v0H32.914v0h-1.73
		L5.235,32.7v2.447v1.013v52.912v2.447c0,0.956,0.774,1.73,1.73,1.73h1.582h53.925h1.582c0.956,0,1.73-0.774,1.73-1.73v-2.448h0.005
		l0-8.789l0-0.001C65.79,79.328,65.015,78.553,64.06,78.553z"/>
	<path d="M26.18,64.173c0.831,0,1.55,0.623,1.786,1.342l2.408-1.121c-0.553-1.273-1.771-2.685-4.193-2.685
		c-2.893,0-5.079,1.924-5.079,4.775c0,2.837,2.187,4.774,5.079,4.774c2.422,0,3.654-1.467,4.193-2.699l-2.408-1.107
		c-0.235,0.719-0.955,1.342-1.786,1.342c-1.342,0-2.242-1.024-2.242-2.311S24.837,64.173,26.18,64.173z"/>
	<path d="M35.656,68.907c-1.246,0-2.284-0.526-2.976-1.19l-1.453,2.076c0.982,0.886,2.325,1.467,4.291,1.467
		c2.477,0,3.986-1.176,3.986-3.211c0-3.432-5.135-2.685-5.135-3.557c0-0.235,0.152-0.415,0.706-0.415
		c0.872,0,1.91,0.304,2.712,0.913l1.495-1.979c-1.052-0.858-2.408-1.287-3.917-1.287c-2.533,0-3.833,1.495-3.833,3.059
		c0,3.64,5.148,2.74,5.148,3.626C36.68,68.768,36.182,68.907,35.656,68.907z"/>
	<polygon points="43.271,61.862 40.102,61.862 43.506,71.093 47.022,71.093 50.426,61.862 47.257,61.862 45.264,68.076 	"/>
</g>
</svg>
