<?xml version="1.0" encoding="utf-8"?>
<!-- Generator: Adobe Illustrator 17.0.0, SVG Export Plug-In . SVG Version: 6.00 Build 0)  -->
<!DOCTYPE svg PUBLIC "-//W3C//DTD SVG 1.1//EN" "http://www.w3.org/Graphics/SVG/1.1/DTD/svg11.dtd">
<svg version="1.1" id="Layer_1" xmlns="http://www.w3.org/2000/svg" x="0px" y="0px"
     width="100px" height="100px" viewBox="0 0 100 100" enable-background="new 0 0 100 100" xml:space="preserve">
<g>
	<path d="M30.267,88.384c-2.726,0-6.235-0.922-9.739-4.426c-4.621-4.621-5.203-9.081-4.878-12.013
		c0.381-3.436,2.14-6.747,5.225-9.833L50.287,32.7c8.215-8.212,13.68-5.208,16.206-2.684c3.056,3.057,5.06,8.338-2.747,16.143
		L36.668,73.237l-5.271-5.271l27.078-27.078c4.172-4.174,3.211-5.135,2.745-5.601c-0.369-0.369-1.49-1.485-5.662,2.684
		L26.146,67.383c-1.279,1.281-2.852,3.252-3.087,5.387c-0.213,1.922,0.682,3.859,2.743,5.916c2.555,2.558,4.487,2.286,5.125,2.194
		c1.74-0.243,3.725-1.442,5.739-3.456c2.495-2.489,32.596-32.591,34.901-34.901c2.849-2.849,4.66-5.62,5.383-8.236
		c1.048-3.786-0.206-7.387-3.83-11.013c-3.825-3.825-9.986-7.829-19.308,1.495L21.601,56.982c-1.456,1.456-3.815,1.456-5.271,0
		c-1.457-1.456-1.457-3.815,0-5.271l32.213-32.212c9.957-9.96,20.836-10.508,29.849-1.495c6.989,6.989,6.981,13.789,5.747,18.269
		c-1.087,3.931-3.473,7.697-7.297,11.522c-2.308,2.31-32.414,32.416-34.904,34.902c-3.208,3.213-6.564,5.086-9.967,5.567
		C31.448,88.341,30.876,88.384,30.267,88.384z"/>
</g>
</svg>
