<?xml version="1.0" encoding="utf-8"?>
<!-- Generator: Adobe Illustrator 17.0.0, SVG Export Plug-In . SVG Version: 6.00 Build 0)  -->
<!DOCTYPE svg PUBLIC "-//W3C//DTD SVG 1.1//EN" "http://www.w3.org/Graphics/SVG/1.1/DTD/svg11.dtd">
<svg version="1.1" id="Layer_1" xmlns="http://www.w3.org/2000/svg" x="0px" y="0px"
     width="100px" height="100px" viewBox="0 0 100 100" enable-background="new 0 0 100 100" xml:space="preserve">
<g>
	<path d="M27.953,46.506c-1.385-2.83-2.117-6.008-2.117-9.192c0-1.743,0.252-3.534,0.768-5.468c0.231-0.87,0.521-1.702,0.847-2.509
		c-1.251-0.683-2.626-1.103-4.101-1.103c-5.47,0-9.898,5.153-9.898,11.517c0,4.452,2.176,8.305,5.354,10.222L5.391,56.217
		c-0.836,0.393-1.387,1.337-1.387,2.392v10.588c0,1.419,0.991,2.569,2.21,2.569h7.929V60.656c0-3.237,1.802-6.172,4.599-7.481
		l10.262-4.779C28.624,47.792,28.273,47.161,27.953,46.506z"/>
	<path d="M60.137,34.801h34.092v-0.001c0.002,0,0.004,0.001,0.006,0.001c0.973,0,1.761-0.789,1.761-1.761c0,0,0-0.001,0-0.001
		l0-6.43h0c0-0.973-0.789-1.761-1.761-1.761c-0.002,0-0.004,0.001-0.006,0.001v-0.005H56.133c1.614,2.114,2.844,4.627,3.526,7.435
		C59.874,33.168,60.03,33.999,60.137,34.801z"/>
	<path d="M95.996,66.436c0-0.973-0.789-1.761-1.761-1.761c-0.002,0-0.004,0.001-0.006,0.001v-0.005H72.007v7.095v1.994
		c0,0.293-0.016,0.582-0.045,0.867h22.267v-0.001c0.002,0,0.004,0.001,0.006,0.001c0.973,0,1.761-0.789,1.761-1.761l0-0.001
		L95.996,66.436L95.996,66.436z"/>
	<path d="M94.235,44.762c-0.002,0-0.004,0.001-0.006,0.001v-0.005H58.944c-0.159,0.419-0.327,0.836-0.514,1.249
		c-0.364,0.802-0.773,1.569-1.224,2.297l10.288,4.908c0.781,0.378,1.473,0.897,2.078,1.503h24.657v-0.001
		c0.002,0,0.004,0.001,0.006,0.001c0.973,0,1.761-0.789,1.761-1.761c0,0,0-0.001,0-0.001l0-6.43h0
		C95.996,45.55,95.207,44.762,94.235,44.762z"/>
	<path d="M65.323,57.702l-11.551-5.51l-4.885-2.33c2.134-1.344,3.866-3.418,5-5.917c0.899-1.984,1.435-4.231,1.435-6.631
		c0-1.348-0.213-2.627-0.512-3.863c-1.453-5.983-6.126-10.392-11.736-10.392c-5.504,0-10.106,4.251-11.648,10.065
		c-0.356,1.333-0.602,2.72-0.602,4.189c0,2.552,0.596,4.93,1.609,7c1.171,2.4,2.906,4.379,5.018,5.651l-4.678,2.178l-11.926,5.554
		c-1.037,0.485-1.717,1.654-1.717,2.959v11.111v1.994c0,1.756,1.224,3.181,2.735,3.181h42.417c1.511,0,2.735-1.424,2.735-3.181
		v-1.994V60.656C67.019,59.355,66.349,58.198,65.323,57.702z"/>
</g>
</svg>
