<?xml version="1.0" encoding="utf-8"?>
<!-- Generator: Adobe Illustrator 17.0.0, SVG Export Plug-In . SVG Version: 6.00 Build 0)  -->
<!DOCTYPE svg PUBLIC "-//W3C//DTD SVG 1.1//EN" "http://www.w3.org/Graphics/SVG/1.1/DTD/svg11.dtd">
<svg version="1.1" id="Layer_1" xmlns="http://www.w3.org/2000/svg" x="0px" y="0px"
     width="100px" height="100px" viewBox="0 0 100 100" enable-background="new 0 0 100 100" xml:space="preserve">
<g>
	<path d="M92.546,38.012c0-0.333-0.035-0.667-0.059-1.096c-0.347,0-0.625,0-0.903,0c-6.932,0-13.863,0.014-20.794-0.017
		c-0.825-0.004-1.055,0.236-1.052,1.055c0.029,7.811,0.029,15.623-0.001,23.435c-0.003,0.838,0.26,1.05,1.065,1.042
		c3.977-0.036,7.954-0.018,11.931-0.014c0.33,0,0.659,0.029,1.071,0.049c0,1.126-0.046,2.173,0.015,3.214
		c0.044,0.745-0.182,0.972-0.944,0.964c-4.062-0.037-8.125,0.004-12.187-0.035c-0.772-0.008-0.97,0.239-0.947,0.966
		c0.047,1.504,0.052,3.013-0.002,4.517c-0.027,0.759,0.225,0.944,0.968,0.941c6.931-0.028,13.862-0.037,20.793,0.008
		c0.914,0.006,1.065-0.293,1.062-1.111C92.541,60.623,92.549,49.317,92.546,38.012z M82.958,56.034
		c-1.219-0.042-2.442-0.033-3.662-0.002c-0.605,0.016-0.854-0.16-0.85-0.816c0.026-3.719,0.004-7.438,0.031-11.157
		c0.002-0.254,0.265-0.721,0.419-0.727c1.608-0.054,3.219-0.032,4.909-0.032c0,0.818,0,1.523,0,2.229
		c0,3.209-0.018,6.417,0.014,9.625C83.826,55.821,83.631,56.058,82.958,56.034z"/>
	<path d="M66.026,36.899c-6.902,0.029-13.805,0.03-20.707-0.001c-0.814-0.004-1.054,0.215-1.051,1.04
		c0.03,7.811,0.03,15.622,0,23.434c-0.003,0.81,0.203,1.069,1.039,1.061c4.004-0.041,8.01,0.012,12.014-0.041
		c0.901-0.012,1.142,0.278,1.068,1.113c-0.064,0.732-0.052,1.478-0.002,2.214c0.048,0.701-0.195,0.927-0.91,0.922
		c-4.033-0.03-8.067-0.014-12.1-0.014c-0.329,0-0.658,0-1.091,0c0,1.898,0.038,3.683-0.018,5.464
		c-0.024,0.767,0.227,0.944,0.966,0.941c6.959-0.028,13.918-0.016,20.877-0.018c0.277-0.001,0.554-0.024,0.905-0.041
		c0.021-0.347,0.056-0.65,0.056-0.953c0.002-11.362-0.007-22.724,0.02-34.086C67.093,37.095,66.828,36.896,66.026,36.899z
		 M58.348,55.458c-0.002,0.188-0.349,0.528-0.544,0.534c-1.418,0.046-2.839,0.042-4.256,0.001c-0.176-0.004-0.493-0.316-0.494-0.488
		c-0.028-4.025-0.021-8.053-0.021-12.216c1.696,0,3.253-0.02,4.808,0.026c0.183,0.005,0.509,0.365,0.511,0.562
		C58.38,47.737,58.38,51.599,58.348,55.458z"/>
	<path d="M21.554,27.974c0,2.557,0,5.114,0,7.671c0,1.271,0,1.272-1.312,1.272c-3.949,0-7.898,0.018-11.847-0.016
		c-0.746-0.007-0.96,0.202-0.958,0.957c0.026,8.607,0.027,17.217-0.002,25.824c-0.003,0.799,0.232,0.995,1.006,0.991
		c6.932-0.027,13.864-0.016,20.796-0.018c0.303,0,0.605-0.025,0.927-0.04c0-12.597,0-25.107,0-37.655c-2.874,0-5.674,0-8.611,0
		C21.554,27.356,21.554,27.665,21.554,27.974z M20.555,58.281c-1.218-0.058-2.441,0.01-3.66-0.04
		c-0.234-0.009-0.654-0.313-0.655-0.484c-0.036-4.766-0.029-9.53-0.029-14.404c1.821,0,3.535,0,5.343,0c0,0.353,0,0.629,0,0.908
		c0,4.342-0.02,8.685,0.018,13.027C21.579,58.089,21.324,58.316,20.555,58.281z"/>
	<path d="M40.852,36.911c-2.328,0.013-4.658,0.037-6.985-0.012c-0.781-0.017-0.952,0.268-0.941,0.985
		c0.036,2.47,0.014,4.94,0.014,7.412c0,6.134,0.01,12.268-0.013,18.401c-0.003,0.713,0.146,1.036,0.937,0.975
		c0.903-0.07,1.816-0.017,2.725-0.017c1.641,0,3.281,0,4.961,0c0.04-0.232,0.067-0.315,0.067-0.398
		c0.004-8.889,0.001-17.776,0.021-26.665C41.638,36.973,41.341,36.909,40.852,36.911z"/>
	<path d="M33.633,33.511c2.442,0.037,4.886,0.014,7.329,0.031c0.53,0.004,0.69-0.209,0.672-0.712
		c-0.03-0.823-0.007-1.647-0.007-2.472c0-1.124,0-2.248,0-3.398c-2.935,0-5.737,0-8.68,0c0,2.08-0.017,4.064,0.03,6.049
		C32.98,33.189,33.401,33.508,33.633,33.511z"/>
</g>
</svg>
