<?xml version="1.0" encoding="utf-8"?>
<!-- Generator: Adobe Illustrator 17.0.0, SVG Export Plug-In . SVG Version: 6.00 Build 0)  -->
<!DOCTYPE svg PUBLIC "-//W3C//DTD SVG 1.1//EN" "http://www.w3.org/Graphics/SVG/1.1/DTD/svg11.dtd">
<svg version="1.1" id="Layer_1" xmlns="http://www.w3.org/2000/svg" x="0px" y="0px"
     width="100px" height="100px" viewBox="0 0 100 100" enable-background="new 0 0 100 100" xml:space="preserve">
<g>
	<path d="M94.762,48.994c0-5.688-4.63-10.314-10.315-10.314c-2.463,0-4.767,0.901-6.626,2.477c-0.06,0.037-0.122,0.072-0.181,0.11
		c-6.707-4.291-15.601-7.031-25.439-7.403l5.872-16.698l14.656,3.504c0.012,4.633,3.781,8.4,8.42,8.4
		c4.642,0,8.422-3.777,8.422-8.421c0-4.646-3.78-8.423-8.422-8.423c-3.529,0-6.544,2.182-7.794,5.26l-17.364-4.15l-7.211,20.49
		c-10.259,0.193-19.556,2.969-26.513,7.404c-1.873-1.625-4.21-2.551-6.718-2.551c-5.687,0-10.31,4.627-10.31,10.314
		c0,3.518,1.815,6.768,4.756,8.66c-0.179,1.025-0.293,2.064-0.293,3.123c0,14.886,18.043,26.997,40.219,26.997
		c22.18,0,40.224-12.111,40.224-26.997c0-1.027-0.103-2.037-0.272-3.035C92.893,55.863,94.762,52.566,94.762,48.994z M63.598,62.347
		c-3.5,0-6.334-2.834-6.334-6.338c0-3.498,2.834-6.334,6.334-6.334c3.5,0,6.339,2.836,6.339,6.334
		C69.937,59.513,67.097,62.347,63.598,62.347z M64.859,73.153c-0.19,0.194-4.733,4.821-15.009,4.821
		c-10.333,0-14.463-4.689-14.636-4.891c-0.579-0.677-0.5-1.703,0.178-2.283c0.677-0.575,1.692-0.501,2.278,0.166
		c0.092,0.104,3.54,3.771,12.18,3.771c8.784,0,12.639-3.798,12.68-3.835c0.62-0.636,1.646-0.648,2.284-0.027
		C65.451,71.494,65.474,72.506,64.859,73.153z M30.809,56.009c0-3.498,2.833-6.334,6.339-6.334c3.494,0,6.334,2.836,6.334,6.334
		c0,3.504-2.84,6.338-6.334,6.338C33.643,62.347,30.809,59.513,30.809,56.009z"/>
</g>
</svg>
